<svg width="82" height="79" viewBox="0 0 82 79" fill="none" xmlns="http://www.w3.org/2000/svg">
<path d="M58.2001 15.984C58.0096 15.984 57.8268 15.9084 57.6921 15.7738L52.7357 10.8153C52.035 10.1153 51.6493 9.18384 51.6493 8.1933C51.6493 7.20276 52.0352 6.27164 52.7358 5.57116C53.4364 4.87069 54.368 4.48511 55.359 4.48511C56.3502 4.48511 57.2816 4.87084 57.9822 5.57116L58.1999 5.78886L58.4176 5.57116C59.1182 4.87069 60.0497 4.48511 61.0408 4.48511C62.032 4.48511 62.9634 4.87084 63.6642 5.57116C64.3648 6.27149 64.7507 7.20276 64.7507 8.1933C64.7507 9.18384 64.3646 10.1151 63.6642 10.8154L58.7078 15.7736C58.5733 15.9084 58.3905 15.984 58.2001 15.984Z" fill="#171719"/>
<path d="M24.0063 27.4066C23.8483 27.4066 23.6969 27.3438 23.5851 27.2322L19.4742 23.1195C18.893 22.5388 18.5731 21.7662 18.5731 20.9448C18.5731 20.1231 18.893 19.3508 19.4744 18.7699C20.0554 18.1891 20.8281 17.8691 21.6502 17.8691C22.472 17.8691 23.2449 18.1891 23.8259 18.7699L24.0066 18.9505L24.1874 18.7699C24.7685 18.1891 25.5412 17.8691 26.3632 17.8691C27.1852 17.8691 27.9579 18.1891 28.5391 18.7699C29.1203 19.3508 29.4404 20.1232 29.4404 20.9448C29.4404 21.7664 29.1203 22.5388 28.5391 23.1195L24.4283 27.232C24.3162 27.3438 24.1644 27.4066 24.0063 27.4066Z" fill="#171719"/>
<path d="M60.5018 46.6677C60.3439 46.6677 60.1924 46.6049 60.0806 46.4933L55.9696 42.3806C55.3884 41.7999 55.0685 41.0273 55.0685 40.2059C55.0685 39.3842 55.3884 38.6119 55.9698 38.0311C56.5508 37.45 57.3235 37.1302 58.1456 37.1302C58.9674 37.1302 59.7403 37.4502 60.3213 38.0311L60.502 38.2116L60.6828 38.0311C61.2639 37.45 62.0366 37.1302 62.8586 37.1302C63.6806 37.1302 64.4533 37.4502 65.0345 38.0311C65.6157 38.6119 65.9358 39.3843 65.9358 40.2059C65.9358 41.0275 65.6157 41.7999 65.0345 42.3806L60.9237 46.4931C60.8117 46.6051 60.66 46.6677 60.5018 46.6677Z" fill="#171719"/>
<g opacity="0.1">
<path opacity="0.1" d="M56.04 10.8152C55.3394 10.1151 54.9537 9.18371 54.9537 8.19318C54.9537 7.20264 55.3395 6.27152 56.0402 5.57104C56.3286 5.28281 56.6565 5.04881 57.0112 4.87209C56.5041 4.6195 55.9419 4.48499 55.3589 4.48499C54.3677 4.48499 53.4363 4.87072 52.7357 5.57104C52.0349 6.27136 51.6492 7.20264 51.6492 8.19318C51.6492 9.18371 52.0351 10.115 52.7355 10.8152L57.692 15.7736C57.8269 15.9083 58.0097 15.9839 58.1999 15.9839C58.3905 15.9839 58.5733 15.9083 58.7079 15.7736L59.8521 14.6289L56.04 10.8152Z" fill="#4AFF3A"/>
</g>
<g opacity="0.1">
<path opacity="0.1" d="M22.7787 23.1193C22.1976 22.5385 21.8776 21.766 21.8776 20.9446C21.8776 20.1228 22.1976 19.3506 22.7789 18.7697C22.9393 18.6093 23.1156 18.471 23.3024 18.3515C22.813 18.0388 22.2451 17.8689 21.65 17.8689C20.828 17.8689 20.0553 18.1888 19.4743 18.7697C18.8929 19.3506 18.573 20.123 18.573 20.9446C18.573 21.7661 18.8929 22.5385 19.4741 23.1193L23.5849 27.2319C23.6968 27.3437 23.8482 27.4064 24.0062 27.4064C24.1643 27.4064 24.3159 27.3436 24.4276 27.2319L25.6585 26.0005L22.7787 23.1193Z" fill="#4AFF3A"/>
</g>
<g opacity="0.1">
<path opacity="0.1" d="M59.2743 42.3805C58.6932 41.7998 58.3732 41.0272 58.3732 40.2058C58.3732 39.384 58.6932 38.6118 59.2745 38.0309C59.4349 37.8705 59.6112 37.7322 59.7979 37.6128C59.3086 37.3 58.7405 37.1301 58.1456 37.1301C57.3236 37.1301 56.5509 37.45 55.9699 38.0309C55.3885 38.6118 55.0686 39.3842 55.0686 40.2058C55.0686 41.0274 55.3885 41.7998 55.9697 42.3805L60.0807 46.4932C60.1924 46.605 60.3439 46.6676 60.5019 46.6676C60.6601 46.6676 60.8116 46.6048 60.9233 46.4932L62.1542 45.2618L59.2743 42.3805Z" fill="#4AFF3A"/>
</g>
<path d="M43.812 13.5403C43.812 14.234 43.252 14.7941 42.5614 14.7941H39.5597C38.8688 14.7941 38.3089 14.234 38.3089 13.5403V7.81094C38.3089 7.11717 38.8689 6.55457 39.5597 6.55457H42.5614C43.2522 6.55457 43.812 7.11717 43.812 7.81094V13.5403Z" fill="#171719"/>
<path d="M32.2694 76.3104C32.2694 76.7749 31.8942 77.1513 31.432 77.1513H17.0312C16.569 77.1513 16.194 76.7749 16.194 76.3104V73.9553C16.194 73.4908 16.5689 73.1144 17.0312 73.1144H31.4321C31.8943 73.1144 32.2696 73.4908 32.2696 73.9553V76.3104H32.2694Z" fill="#171719"/>
<path d="M65.927 76.3104C65.927 76.7749 65.5523 77.1513 65.0898 77.1513H50.6889C50.2266 77.1513 49.8515 76.7749 49.8515 76.3104V73.9553C49.8515 73.4908 50.2264 73.1144 50.6889 73.1144H65.0898C65.5522 73.1144 65.927 73.4908 65.927 73.9553V76.3104Z" fill="#171719"/>
<path d="M52.3323 52.4088C48.5053 41.33 45.2117 28.9481 42.7596 16.4061H39.3703C36.9188 28.948 33.6248 41.3298 29.7978 52.4088H37.0851V46.5083C37.0851 44.1908 38.9169 42.3117 41.2238 42.3117C43.5311 42.3117 45.3626 44.1907 45.3626 46.5083V52.4088H52.3323Z" fill="#171719"/>
<path d="M54.0012 57.0662H28.1287C25.9539 62.92 23.6516 68.3061 21.2687 73.1142H28.3952C28.9538 70.4961 30.3048 68.0908 32.2961 66.2494C34.6962 64.0299 37.8104 62.7958 41.0648 62.7958C44.3193 62.7958 47.4334 64.0117 49.8334 66.2308C51.8247 68.0719 53.1753 70.4917 53.734 73.1143H60.8609C58.4781 68.3059 56.1761 62.9198 54.0012 57.0662Z" fill="#171719"/>
<path opacity="0.1" d="M39.3706 16.4061C36.7356 29.8861 33.1275 43.182 28.9303 54.8735C26.5225 61.5802 23.9464 67.7113 21.2687 73.1143H24.5425C27.2203 67.7114 29.7966 61.5802 32.2042 54.8735C36.4014 43.182 40.0094 29.8861 42.6444 16.4061C42.6444 16.4061 39.3706 16.4061 39.3706 16.4061Z" fill="#4AFF3A"/>
<path opacity="0.1" d="M21.1668 76.3103V73.9552C21.1668 73.4907 21.5417 73.1143 22.004 73.1143H17.0312C16.569 73.1143 16.194 73.4907 16.194 73.9552V76.3103C16.194 76.7748 16.5689 77.1512 17.0312 77.1512H22.0042C21.5417 77.1512 21.1668 76.7748 21.1668 76.3103Z" fill="#4AFF3A"/>
<path opacity="0.1" d="M54.8246 76.3103V73.9552C54.8246 73.4907 55.1996 73.1143 55.6621 73.1143H50.6891C50.2268 73.1143 49.8517 73.4907 49.8517 73.9552V76.3103C49.8517 76.7748 50.2266 77.1512 50.6891 77.1512H55.6621C55.1996 77.1512 54.8246 76.7748 54.8246 76.3103Z" fill="#4AFF3A"/>
<path d="M57.1086 56.1706C57.1086 56.6651 56.7093 57.0664 56.2173 57.0664H25.904C25.4114 57.0664 25.0125 56.6653 25.0125 56.1706V53.3046C25.0125 52.8101 25.4116 52.4088 25.904 52.4088H56.2174C56.7096 52.4088 57.1088 52.8099 57.1088 53.3046V56.1705H57.1086V56.1706Z" fill="#171719"/>
<path d="M49.9761 35.0345C49.9761 35.5293 49.5768 35.9301 49.0845 35.9301H33.0364C32.5439 35.9301 32.1446 35.5293 32.1446 35.0345V32.1686C32.1446 31.6738 32.5439 31.2729 33.0364 31.2729H49.0844C49.5768 31.2729 49.9759 31.6738 49.9759 32.1686V35.0345H49.9761Z" fill="#171719"/>
<path d="M45.0724 12.2864C45.565 12.2864 45.9642 12.6873 45.9642 13.182V15.5107C45.9642 16.0052 45.565 16.4064 45.0724 16.4064H37.0485C36.5561 16.4064 36.157 16.0054 36.157 15.5107V13.182C36.157 12.6875 36.5563 12.2864 37.0485 12.2864H45.0724Z" fill="#171719"/>
<path opacity="0.1" d="M39.4729 15.5106V13.182C39.4729 12.6875 39.8722 12.2864 40.3644 12.2864H39.1128H37.0485C36.5561 12.2864 36.157 12.6873 36.157 13.182V15.5107C36.157 16.0052 36.5563 16.4064 37.0485 16.4064H40.3644C39.872 16.4062 39.4729 16.0052 39.4729 15.5106Z" fill="#4AFF3A"/>
<path d="M56.8479 16.6181C57.2091 16.9792 57.6891 17.178 58.1998 17.178C58.7107 17.178 59.1912 16.979 59.5521 16.6178L64.5082 11.6599C65.4344 10.734 65.9446 9.50291 65.9446 8.19337C65.9446 6.88382 65.4344 5.65289 64.5082 4.72694C63.5821 3.80115 62.3508 3.29126 61.0408 3.29126C60.0079 3.29126 59.0239 3.60829 58.1998 4.19633C57.3757 3.60829 56.3916 3.29126 55.3587 3.29126C54.0489 3.29126 52.8175 3.80115 51.8915 4.72679C50.9653 5.65258 50.4551 6.88367 50.4551 8.19337C50.4551 9.50306 50.9653 10.7342 51.8911 11.6593L56.8479 16.6181ZM53.5796 6.41567C54.0548 5.94066 54.6867 5.67909 55.3589 5.67909C56.0312 5.67909 56.6629 5.94082 57.1381 6.41567L57.3558 6.63337C57.822 7.09939 58.5777 7.09939 59.0437 6.63337L59.2614 6.41567C59.7366 5.94066 60.3685 5.67909 61.0407 5.67909C61.713 5.67909 62.3447 5.94082 62.8199 6.41582C63.295 6.89068 63.5568 7.52199 63.5568 8.19337C63.5568 8.86474 63.295 9.49621 62.8197 9.97152L58.1998 14.5933L53.5793 9.97091C53.1043 9.49636 52.8428 8.86505 52.8428 8.19352C52.8428 7.52199 53.1045 6.89053 53.5796 6.41567Z" fill="#4AFF3A"/>
<path d="M22.7407 28.0763C23.0787 28.4143 23.5282 28.6005 24.0062 28.6005C24.4779 28.6005 24.9393 28.4092 25.272 28.0761L29.3824 23.9639C30.1894 23.1577 30.6338 22.0852 30.6338 20.9446C30.6338 19.804 30.1894 18.7318 29.3826 17.9253C28.5758 17.1191 27.5034 16.675 26.3627 16.675C25.5117 16.675 24.6989 16.9221 24.0061 17.3821C23.3134 16.922 22.5004 16.675 21.6496 16.675C20.5087 16.675 19.4364 17.119 18.63 17.9253C17.823 18.7315 17.3787 19.804 17.3787 20.9448C17.3787 22.0857 17.8229 23.1577 18.6294 23.9635L22.7407 28.0763ZM20.3183 19.6142C20.6739 19.2588 21.1469 19.063 21.6499 19.063C22.1531 19.063 22.6258 19.2588 22.9817 19.6145L23.1624 19.795C23.6282 20.2608 24.3839 20.2611 24.85 19.7953L25.0313 19.6144C25.3869 19.2589 25.8599 19.0632 26.363 19.0632C26.866 19.0632 27.339 19.2589 27.6949 19.6147C28.0505 19.9699 28.2464 20.4427 28.2464 20.9451C28.2464 21.4475 28.0506 21.9201 27.6946 22.2758L24.0067 25.9653L20.3183 22.2753C19.9629 21.9202 19.7673 21.4478 19.7673 20.9452C19.7666 20.4419 19.9626 19.9696 20.3183 19.6142Z" fill="#4AFF3A"/>
<path d="M62.8583 35.9364C62.0073 35.9364 61.1945 36.1835 60.5017 36.6434C59.809 36.1834 58.996 35.9364 58.1452 35.9364C57.0043 35.9364 55.932 36.3803 55.1256 37.1867C54.3187 37.9929 53.8743 39.0654 53.8743 40.2061C53.8743 41.347 54.3187 42.4191 55.125 43.2248L59.2361 47.3376C59.5742 47.6757 60.0236 47.8619 60.5017 47.8619C60.9733 47.8619 61.4348 47.6705 61.7675 47.3375L65.8779 43.2253C66.6848 42.4191 67.1292 41.3466 67.1292 40.206C67.1292 39.0654 66.6848 37.9932 65.878 37.1867C65.0715 36.3803 63.999 35.9364 62.8583 35.9364ZM64.1899 41.5366L60.502 45.226L56.8136 41.5361C56.4582 41.181 56.2626 40.7086 56.2626 40.206C56.2626 39.7032 56.4583 39.231 56.8142 38.8756C57.1698 38.5201 57.6428 38.3244 58.1458 38.3244C58.6489 38.3244 59.1217 38.5201 59.4776 38.8759L59.6583 39.0564C60.1243 39.5221 60.8798 39.5224 61.3459 39.0567L61.5272 38.8757C61.8828 38.5203 62.3558 38.3245 62.8589 38.3245C63.3621 38.3245 63.8349 38.5203 64.1908 38.876C64.5464 39.2314 64.7423 39.704 64.7423 40.2064C64.7417 40.7084 64.5458 41.1808 64.1899 41.5366Z" fill="#4AFF3A"/>
<path d="M65.0899 71.9204H61.6042C59.5751 67.768 57.6056 63.1919 55.7257 58.2601H56.2173C57.367 58.2601 58.3026 57.3227 58.3026 56.1705V53.3045C58.3026 52.1523 57.3672 51.2149 56.2173 51.2149H53.1869C51.6476 46.7027 50.1973 41.9805 48.8564 37.1238H49.0846C50.2345 37.1238 51.17 36.1866 51.17 35.0344V32.1684C51.17 31.0162 50.2345 30.079 49.0846 30.079H47.0113C45.9934 25.9712 45.0571 21.7974 44.214 17.5999H45.0723C46.2222 17.5999 47.1579 16.6625 47.1579 15.5105V13.1819C47.1579 12.0298 46.2223 11.0926 45.0723 11.0926H45.0057V7.81093C45.0057 6.45995 43.9092 5.36064 42.5614 5.36064H42.2542V1.53925C42.2542 0.87991 41.7197 0.345337 41.0603 0.345337C40.401 0.345337 39.8664 0.87991 39.8664 1.53925V5.36064H39.5593C38.2114 5.36064 37.1148 6.45979 37.1148 7.81093V11.0926H37.0482C35.8983 11.0926 34.9628 12.0298 34.9628 13.1819V15.5107C34.9628 16.6628 35.8983 17.6001 37.0482 17.6001H37.9155C37.0726 21.7974 36.1364 25.9712 35.1183 30.0791H33.0364C31.8865 30.0791 30.9508 31.0163 30.9508 32.1685V35.0344C30.9508 36.1866 31.8865 37.1238 33.0364 37.1238H33.2734C31.9325 41.9805 30.4822 46.7025 28.9428 51.2149H25.9038C24.7539 51.2149 23.8184 52.1523 23.8184 53.3045V56.1704C23.8184 57.3225 24.7539 58.2599 25.9038 58.2599H26.4041C24.5242 63.1914 22.5547 67.7675 20.5255 71.9202H17.0312C15.9112 71.9202 15 72.8329 15 73.9551V76.3102C15 77.4323 15.9112 78.345 17.0312 78.345H31.4321C32.5521 78.345 33.4634 77.4323 33.4634 76.3102V73.9551C33.4634 72.8329 32.5521 71.9202 31.4321 71.9202H29.9534C30.5861 70.0976 31.6609 68.443 33.1068 67.1059C35.287 65.0898 38.1132 63.9795 41.0651 63.9795C44.0191 63.9795 46.8453 65.0886 49.0232 67.1022C50.4694 68.4394 51.5442 70.0953 52.1771 71.9202H50.6895C49.5695 71.9202 48.6582 72.8329 48.6582 73.9551V76.3102C48.6582 77.4323 49.5695 78.345 50.6895 78.345H65.0904C66.2103 78.345 67.1214 77.4323 67.1214 76.3102V73.9551C67.1208 72.8331 66.2098 71.9204 65.0899 71.9204ZM50.666 51.2149H46.6361V49.6923H50.1583C50.3266 50.2023 50.4959 50.7098 50.666 51.2149ZM49.3856 47.3044H46.636V46.5081C46.636 46.1821 46.6055 45.8634 46.5505 45.5534H48.8359C49.0177 46.1399 49.201 46.7236 49.3856 47.3044ZM41.3035 41.1178C39.6115 41.1178 38.1021 41.9194 37.1245 43.1657H34.0207C34.2261 42.4791 34.4291 41.7893 34.6302 41.0963H41.2239C41.8833 41.0963 42.4179 40.5617 42.4179 39.9024C42.4179 39.243 41.8833 38.7085 41.2239 38.7085H35.311C35.4587 38.1815 35.6049 37.6532 35.7502 37.1236H46.3797C46.525 37.6532 46.6714 38.1815 46.8189 38.7085H45.9995C45.3401 38.7085 44.8055 39.243 44.8055 39.9024C44.8055 40.5617 45.3401 41.0963 45.9995 41.0963H47.4997C47.7008 41.7892 47.9039 42.4791 48.1093 43.1657H45.4824C44.5048 41.9194 42.9954 41.1178 41.3035 41.1178ZM44.2483 46.5081V51.2149H38.3585V46.5081C38.3585 44.8525 39.6796 43.5055 41.3035 43.5055C42.9273 43.5055 44.2483 44.8525 44.2483 46.5081ZM37.3508 15.2122V13.4801H39.1126C39.772 13.4801 40.3065 12.9455 40.3065 12.2862C40.3065 11.7636 39.9702 11.3206 39.5026 11.1588V7.81093C39.5026 7.7765 39.5281 7.74831 39.5594 7.74831H42.5612C42.5926 7.74831 42.618 7.77635 42.618 7.81093V11.0926H42.4599C41.8006 11.0926 41.266 11.6271 41.266 12.2865C41.266 12.9458 41.8006 13.4804 42.4599 13.4804H44.7702V15.2125H37.3508V15.2122ZM43.3964 25.1912C43.496 25.6295 43.5965 26.067 43.6982 26.5041H38.4316C38.5333 26.067 38.6338 25.6293 38.7334 25.1912H43.3964ZM39.265 22.8034C39.6426 21.0743 40.0047 19.3389 40.3513 17.5999H41.7782C42.1248 19.3391 42.4872 21.0744 42.8645 22.8034H39.265ZM37.8669 28.8919H44.263C44.3587 29.2883 44.4552 29.6839 44.5522 30.0791H37.5778C37.6748 29.6838 37.7712 29.288 37.8669 28.8919ZM33.3386 32.4668H48.7823V34.736H33.3386V32.4668ZM33.2939 45.5534H36.0563C36.0012 45.8634 35.9708 46.1821 35.9708 46.5081V47.3044H32.7442C32.9288 46.7236 33.112 46.1399 33.2939 45.5534ZM31.9715 49.6921H35.9708V51.2148H31.4638C31.6341 50.7098 31.8032 50.2023 31.9715 49.6921ZM26.2062 55.8722V53.6026H55.9147V55.8722H26.2062ZM23.6775 70.8636H27.7972C27.6687 71.2108 27.5539 71.5632 27.4527 71.9204H23.1775C23.3449 71.5709 23.5114 71.2186 23.6775 70.8636ZM31.0754 74.3081V75.9574H17.3877V74.3081H31.0754ZM28.9445 68.4758H24.771C25.0985 67.7438 25.4239 67.0002 25.7474 66.2471H30.602C29.9749 66.9386 29.4202 67.6848 28.9445 68.4758ZM35.6524 61.631H40.068C37.6873 61.7992 35.4044 62.5668 33.4109 63.8596H26.7519C27.0545 63.1256 27.3551 62.3828 27.6536 61.631H31.0361C31.6955 61.631 32.23 61.0964 32.23 60.4371C32.23 59.7777 31.6955 59.2431 31.0361 59.2431H28.584C28.7085 58.9171 28.8325 58.5893 28.9563 58.2601H53.1732C53.2969 58.5891 53.421 58.9171 53.5455 59.2431H35.6524C34.9931 59.2431 34.4585 59.7777 34.4585 60.4371C34.4585 61.0964 34.9931 61.631 35.6524 61.631ZM48.7231 63.8595C46.7298 62.5668 44.4459 61.7992 42.0626 61.6308H54.4762C54.7746 62.3826 55.0753 63.1255 55.3777 63.8595H48.7231ZM51.5306 66.2473H56.3821C57.2255 68.2105 58.0829 70.1032 58.952 71.9204H54.6766C54.0819 69.8187 53.0097 67.8786 51.5306 66.2473ZM64.733 75.9575H51.0454V74.3081H64.733V75.9575Z" fill="#4AFF3A"/>
<path opacity="0.1" d="M28.3301 56.1705V53.3045C28.3301 52.81 28.7292 52.4087 29.2216 52.4087H25.9038C25.4113 52.4087 25.0123 52.8098 25.0123 53.3045V56.1704C25.0123 56.6649 25.4115 57.0661 25.9038 57.0661H29.2216C28.7291 57.0661 28.3301 56.6652 28.3301 56.1705Z" fill="#4AFF3A"/>
<path opacity="0.1" d="M35.4625 35.0345V32.1686C35.4625 31.6738 35.8618 31.2729 36.3543 31.2729H33.0366C32.5441 31.2729 32.1448 31.6738 32.1448 32.1686V35.0345C32.1448 35.5293 32.5441 35.9301 33.0366 35.9301H36.3543C35.8617 35.9299 35.4625 35.5293 35.4625 35.0345Z" fill="#4AFF3A"/>
</svg>
