<svg width="25" height="25" viewBox="0 0 25 25" fill="none" xmlns="http://www.w3.org/2000/svg">
<path d="M3.67786 17.5025C3.12557 17.5025 2.67786 17.9502 2.67786 18.5025C2.67786 19.0548 3.12557 19.5025 3.67786 19.5025V17.5025ZM8.67994 19.5025C9.23222 19.5025 9.67994 19.0548 9.67994 18.5025C9.67994 17.9502 9.23222 17.5025 8.67994 17.5025V19.5025ZM8.67994 22.5037C9.23222 22.5037 9.67994 22.056 9.67994 21.5037C9.67994 20.9515 9.23222 20.5037 8.67994 20.5037V22.5037ZM5.67869 20.5037C5.12641 20.5037 4.67869 20.9515 4.67869 21.5037C4.67869 22.056 5.12641 22.5037 5.67869 22.5037V20.5037ZM12.6816 20.5037C12.1293 20.5037 11.6816 20.9515 11.6816 21.5037C11.6816 22.056 12.1293 22.5037 12.6816 22.5037V20.5037ZM3.67786 12.5H2.67785L2.67786 12.504L3.67786 12.5ZM2.94322 14.7318C3.0708 15.2692 3.60982 15.6014 4.14717 15.4738C4.68452 15.3462 5.01671 14.8072 4.88913 14.2698L2.94322 14.7318ZM13.3995 8.49833C13.3995 7.94604 12.9518 7.49833 12.3995 7.49833C11.8472 7.49833 11.3995 7.94604 11.3995 8.49833H13.3995ZM12.3995 13.1363H11.3995C11.3995 13.485 11.5812 13.8085 11.8789 13.9901L12.3995 13.1363ZM15.5365 16.22C16.008 16.5075 16.6233 16.3583 16.9108 15.8868C17.1983 15.4152 17.0491 14.7999 16.5776 14.5124L15.5365 16.22ZM3.67786 19.5025H8.67994V17.5025H3.67786V19.5025ZM8.67994 20.5037H5.67869V22.5037H8.67994V20.5037ZM12.6816 22.5037C18.2065 22.5037 22.6854 18.0249 22.6854 12.5H20.6854C20.6854 16.9203 17.102 20.5037 12.6816 20.5037V22.5037ZM22.6854 12.5C22.6854 6.97508 18.2065 2.49625 12.6816 2.49625V4.49625C17.102 4.49625 20.6854 8.07965 20.6854 12.5H22.6854ZM12.6816 2.49625C7.15669 2.49625 2.67786 6.97508 2.67786 12.5H4.67786C4.67786 8.07965 8.26126 4.49625 12.6816 4.49625V2.49625ZM2.67786 12.504C2.68087 13.2543 2.7699 14.0018 2.94322 14.7318L4.88913 14.2698C4.75113 13.6886 4.68024 13.0934 4.67785 12.496L2.67786 12.504ZM11.3995 8.49833V13.1363H13.3995V8.49833H11.3995ZM11.8789 13.9901L15.5365 16.22L16.5776 14.5124L12.92 12.2824L11.8789 13.9901Z" fill="white"/>
</svg>
